x,y,u,v,S
11.052497,-3.538569,1.020364,-0.003984,8.792416
11.052497,3.546976,1.020030,0.003914,8.787595
11.052501,4.973665,1.026876,0.005135,8.472658
11.052502,-5.001878,1.026911,-0.005130,8.464840
11.052492,-2.098635,0.942814,0.001890,8.380610
11.052492,2.100370,0.942490,-0.002645,8.377500
11.052503,6.381939,1.025060,0.005433,8.031787
11.052505,-6.409963,1.025083,-0.005418,8.023140
11.052506,-7.794003,1.023083,-0.005713,7.564942
11.052505,7.820089,1.022985,0.005738,7.555812
13.200955,-3.538571,1.015468,-0.002596,7.430102
13.200955,3.546978,1.014428,0.002484,7.421309
13.200941,4.973664,1.026358,0.004137,7.275678
13.200942,-5.001878,1.026380,-0.004111,7.270696
11.052508,-9.240842,1.020881,-0.005958,7.086308
11.052506,9.268873,1.020786,0.005979,7.076812
13.200939,6.381939,1.024588,0.004429,6.987799
13.200940,-6.409963,1.024609,-0.004409,6.982120
13.200968,2.100377,0.931429,-0.003299,6.968157
13.200968,-2.098637,0.931072,0.003106,6.965627
13.200941,-7.794003,1.022660,-0.004660,6.671004
13.200941,7.820086,1.022567,0.004690,6.664626
11.052510,-10.708714,1.018651,-0.006103,6.619279
11.052507,10.736765,1.018559,0.006119,6.610291
11.052489,0.700319,0.716575,-0.006247,6.470647
15.340947,-3.538574,1.010181,-0.001383,6.416395
15.340947,3.546972,1.008433,0.001119,6.404521
11.052489,-0.700311,0.708311,0.005969,6.396015
15.340946,4.973673,1.025609,0.003124,6.359580
15.340945,-5.001877,1.025571,-0.003107,6.355910
13.200942,-9.240840,1.020572,-0.004877,6.333558
13.200942,9.268869,1.020480,0.004904,6.326671
11.052512,-12.156772,1.016536,-0.006140,6.187180
11.052509,12.182961,1.016454,0.006152,6.179395
15.340945,6.381939,1.024113,0.003485,6.163651
15.340943,-6.409960,1.024136,-0.003464,6.159791
13.200944,-10.708718,1.018476,-0.005032,5.991714
13.200944,10.736778,1.018390,0.005056,5.984982
15.340951,2.100368,0.922711,-0.003899,5.959151
15.340951,-2.098642,0.920496,0.003881,5.944938
15.340943,-7.794003,1.022255,-0.003730,5.940863
15.340946,7.820089,1.022164,0.003766,5.936251
11.052510,-13.545774,1.014650,-0.006087,5.803832
11.052510,13.569127,1.014582,0.006097,5.797441
15.340943,-9.240838,1.020252,-0.003959,5.696864
15.340946,9.268870,1.020164,0.003995,5.691772
13.200945,-12.156770,1.016506,-0.005116,5.664379
13.200945,12.182971,1.016425,0.005137,5.658329
17.485912,4.973672,1.024549,0.002226,5.635748
17.485920,-5.001877,1.024598,-0.002202,5.633618
17.485937,-3.538574,1.004882,-0.000272,5.632625
17.485937,3.546969,1.002442,0.000015,5.618419
17.485901,6.381939,1.023579,0.002662,5.498953
17.485897,-6.409957,1.023619,-0.002625,5.496325
13.200964,0.700319,0.726021,-0.005436,5.492192
11.052510,-14.931768,1.012934,-0.005967,5.452635
11.052510,14.951303,1.012884,0.005976,5.447757
15.340943,-10.708714,1.018258,-0.004137,5.442698
15.340946,10.736795,1.018181,0.004170,5.437611
13.200964,-0.700311,0.717493,0.006147,5.427721
13.200948,-13.545763,1.014714,-0.005134,5.364854
13.200948,13.569128,1.014685,0.005153,5.359953
17.485897,-7.794003,1.021816,-0.002918,5.337475
17.485897,7.820091,1.021727,0.002970,5.334044
17.485956,2.100367,0.915279,-0.004544,5.197073
15.340944,-12.156762,1.016376,-0.004259,5.192594
15.340947,12.182986,1.016313,0.004288,5.187953
17.485956,-2.098644,0.911830,0.004394,5.177544
17.485899,-9.240839,1.019900,-0.003172,5.156894
17.485899,9.268871,1.019819,0.003219,5.153067
11.052510,-16.388735,1.011323,-0.005788,5.116208
11.052510,16.403160,1.011280,0.005796,5.112898
13.200948,-14.931766,1.013101,-0.005100,5.083249
13.200948,14.951300,1.013056,0.005116,5.079291
19.649117,4.973667,1.023206,0.001519,5.048181
19.649120,-5.001874,1.023407,-0.001439,5.047445
19.649126,-3.538573,0.999541,0.000700,5.006413
19.649126,3.546972,0.996690,-0.000696,4.991761
17.485901,-10.708713,1.017991,-0.003377,4.964754
17.485901,10.736797,1.017918,0.003419,4.960849
15.340944,-13.545751,1.014697,-0.004327,4.958161
15.340947,13.569137,1.014639,0.004352,4.954128
19.649109,6.381938,1.023012,0.001997,4.951777
19.649107,-6.409971,1.023046,-0.001919,4.949859
19.649107,-7.794005,1.021335,-0.002232,4.831659
19.649109,7.820095,1.021259,0.002307,4.829097
11.052507,-17.814434,1.009920,-0.005579,4.817350
11.052507,17.823242,1.009890,0.005587,4.815489
13.200948,-16.388735,1.011563,-0.005017,4.806922
13.200948,16.403149,1.011520,0.005031,4.804156
15.340938,0.700318,0.735278,-0.005205,4.788045
17.485903,-12.156761,1.016197,-0.003530,4.771678
17.485903,12.182986,1.016132,0.003566,4.768018
15.340938,-0.700311,0.727791,0.005503,4.739313
15.340944,-14.931758,1.013144,-0.004350,4.732596
15.340947,14.951274,1.013097,0.004372,4.729368
19.649109,-9.240849,1.019508,-0.002504,4.695263
19.649109,9.268885,1.019438,0.002566,4.692360
19.649120,2.100367,0.908881,-0.004742,4.599418
17.485907,-13.545751,1.014581,-0.003634,4.586977
17.485907,13.569139,1.014531,0.003666,4.583783
19.649120,-2.098639,0.904923,0.004943,4.579434
21.780865,-5.001884,1.022048,-0.000876,4.573370
21.780870,4.973665,1.021757,0.000995,4.573358
13.200949,-17.814425,1.010208,-0.004901,4.556188
13.200948,17.823244,1.010177,0.004914,4.554594
19.649111,-10.708701,1.017681,-0.002729,4.547750
19.649107,10.736786,1.017621,0.002780,4.544751
11.052510,-19.294998,1.008648,-0.005339,4.536098
11.052510,19.297878,1.008625,0.005348,4.535486
15.340944,-16.388735,1.011661,-0.004335,4.506629
21.780869,-3.538570,0.994215,0.001324,4.505558
21.780886,6.381931,1.022480,0.001485,4.504996
15.340947,16.403126,1.011633,0.004354,4.504396
21.780857,-6.409980,1.022466,-0.001378,4.503371
21.780869,3.546974,0.991548,-0.001158,4.493193
21.780853,-7.794011,1.020849,-0.001688,4.412892
21.780891,7.820095,1.020802,0.001778,4.411006
17.485907,-14.931756,1.013100,-0.003700,4.406002
17.485907,14.951264,1.013052,0.003727,4.403369
19.649111,-12.156784,1.015958,-0.002905,4.397011
19.649107,12.182991,1.015906,0.002948,4.394164
13.200948,-19.294992,1.008967,-0.004754,4.315807
13.200948,19.297869,1.008946,0.004766,4.315279
21.780855,-9.240860,1.019100,-0.001964,4.307262
21.780886,9.268896,1.019056,0.002034,4.305078
15.340945,-17.814421,1.010362,-0.004287,4.297707
15.340947,17.823259,1.010334,0.004305,4.296364
17.485971,0.700318,0.744951,-0.004865,4.256958
19.649113,-13.545748,1.014410,-0.003037,4.250498
19.649107,13.569122,1.014367,0.003073,4.247957
17.485907,-16.388735,1.011673,-0.003734,4.221391
17.485907,16.403118,1.011644,0.003758,4.219540
17.485971,-0.700311,0.737882,0.004690,4.216556
21.780855,-10.708698,1.017346,-0.002198,4.191621
21.780884,10.736792,1.017303,0.002254,4.189298
23.932924,-5.001884,1.020499,-0.000428,4.173818
23.932924,4.973665,1.020196,0.000543,4.173561
21.780863,2.100367,0.903794,-0.004692,4.130384
23.932919,6.381932,1.021978,0.001064,4.126003
23.932938,-6.409979,1.021902,-0.000963,4.124489
21.780882,-2.098639,0.900030,0.004976,4.113216
19.649113,-14.931774,1.012986,-0.003134,4.104692
19.649107,14.951274,1.012949,0.003165,4.102580
15.340944,-19.294981,1.009158,-0.004210,4.093919
15.340947,19.297848,1.009138,0.004226,4.093468
23.932913,-3.538570,0.989197,0.001704,4.088766
23.932915,3.546973,0.986895,-0.001499,4.079038
21.780855,-12.156792,1.015692,-0.002389,4.071932
21.780882,12.182992,1.015651,0.002434,4.069678
23.932943,-7.794011,1.020365,-0.001259,4.053884
23.932915,7.820096,1.020359,0.001343,4.052565
17.485910,-17.814419,1.010411,-0.003737,4.047794
17.485910,17.823267,1.010396,0.003758,4.046711
23.932945,-9.240861,1.018688,-0.001528,3.970724
23.932919,9.268894,1.018670,0.001592,3.969091
21.780857,-13.545750,1.014201,-0.002538,3.954099
19.649113,-16.388729,1.011615,-0.003204,3.953700
19.649105,16.403111,1.011588,0.003231,3.952172
21.780882,13.569123,1.014166,0.002576,3.952057
23.932940,-10.708697,1.017001,-0.001761,3.878802
23.932919,10.736793,1.016975,0.001812,3.877008
17.485907,-19.294985,1.009249,-0.003713,3.875870
17.485907,19.297852,1.009235,0.003732,3.875501
19.649111,0.700319,0.754658,-0.004324,3.838297
21.780857,-14.931764,1.012826,-0.002656,3.835364
26.091431,-5.001884,1.018822,-0.000101,3.834979
26.091448,4.973661,1.018561,0.000169,3.834761
21.780882,14.951263,1.012797,0.002688,3.833652
19.649118,-17.814409,1.010399,-0.003245,3.809618
19.649111,17.823271,1.010383,0.003268,3.808702
19.649111,-0.700311,0.747897,0.004142,3.803906
26.091446,6.381933,1.021485,0.000717,3.802911
26.091425,-6.409976,1.021367,-0.000652,3.801528
23.932938,-12.156792,1.015403,-0.001957,3.782684
23.932917,12.182995,1.015375,0.001998,3.780911
23.932926,2.100367,0.899932,-0.004346,3.745871
26.091434,-7.794010,1.019904,-0.000929,3.745426
26.091433,7.820096,1.019931,0.000984,3.744497
26.091433,-3.538575,0.984708,0.001909,3.739837
26.091436,3.546970,0.982720,-0.001777,3.732125
23.932938,-2.098639,0.896464,0.004736,3.731469
21.780857,-16.388741,1.011502,-0.002751,3.710863
21.780884,16.403116,1.011483,0.002779,3.709613
23.932936,-13.545749,1.013964,-0.002115,3.687095
23.932919,13.569124,1.013937,0.002150,3.685454
26.091440,-9.240862,1.018286,-0.001183,3.678845
26.091425,9.268892,1.018289,0.001226,3.677612
19.649117,-19.294968,1.009272,-0.003262,3.664932
19.649105,19.297869,1.009262,0.003283,3.664628
26.091440,-10.708696,1.016654,-0.001408,3.604706
26.091429,10.736794,1.016642,0.001444,3.603301
21.780870,-17.814425,1.010331,-0.002819,3.590613
21.780878,17.823284,1.010314,0.002843,3.589836
23.932936,-14.931763,1.012631,-0.002246,3.589765
23.932919,14.951262,1.012614,0.002276,3.588392
28.201925,-5.001876,1.017220,0.000119,3.551492
28.201920,4.973659,1.016864,-0.000166,3.550858
28.201900,6.381932,1.020996,0.000427,3.531029
28.201904,-6.409973,1.020869,-0.000436,3.529831
26.091442,-12.156794,1.015105,-0.001600,3.526564
26.091427,12.182998,1.015090,0.001632,3.525157
21.780855,0.700319,0.762942,-0.003952,3.501049
23.932936,-16.388741,1.011355,-0.002357,3.486661
23.932915,16.403116,1.011338,0.002384,3.485628
28.201899,-7.794010,1.019489,-0.000688,3.484353
28.201891,7.820095,1.019526,0.000695,3.483651
21.780867,-0.700310,0.757795,0.003348,3.477414
21.780857,-19.294994,1.009237,-0.002866,3.468402
21.780886,19.297884,1.009227,0.002887,3.468139
28.201939,-3.538575,0.980727,0.002063,3.450469
26.091444,-13.545750,1.013710,-0.001760,3.448215
26.091431,13.569124,1.013693,0.001789,3.446898
28.201939,3.546970,0.979004,-0.002044,3.444282
28.201891,-9.240860,1.017918,-0.000920,3.429960
28.201885,9.268895,1.017924,0.000932,3.428971
26.091421,2.100369,0.897034,-0.004255,3.426993
26.091438,-2.098640,0.893979,0.004347,3.415341
23.932932,-17.814425,1.010219,-0.002444,3.386008
23.932924,17.823284,1.010208,0.002468,3.385370
28.201887,-10.708694,1.016329,-0.001130,3.369058
28.201876,10.736799,1.016320,0.001148,3.367913
26.091446,-14.931761,1.012421,-0.001897,3.367788
26.091433,14.951262,1.012406,0.001924,3.366655
28.201874,-12.156793,1.014822,-0.001315,3.304484
30.331257,-5.001875,1.015601,0.000219,3.303745
28.201866,12.183001,1.014806,0.001335,3.303317
30.331257,4.973659,1.015077,-0.000443,3.302530
30.331255,6.381932,1.020476,0.000194,3.292346
30.331263,-6.409974,1.020431,-0.000297,3.291587
23.932936,-19.294994,1.009157,-0.002513,3.282655
23.932909,19.297886,1.009152,0.002534,3.282449
26.091444,-16.388742,1.011180,-0.002019,3.281824
26.091431,16.403114,1.011170,0.002043,3.280979
30.331261,-7.794010,1.019118,-0.000508,3.254239
30.331257,7.820095,1.019125,0.000465,3.253586
28.201862,-13.545750,1.013462,-0.001473,3.239320
28.201859,13.569125,1.013446,0.001494,3.238220
23.932936,0.700318,0.770601,-0.003219,3.218485
30.331257,-9.240859,1.017578,-0.000712,3.209245
30.331264,9.268893,1.017566,0.000697,3.208380
23.932938,-0.700310,0.766737,0.003149,3.202346
30.331257,-3.538575,0.977089,0.002014,3.199698
26.091448,-17.814425,1.010078,-0.002119,3.197165
26.091434,17.823284,1.010072,0.002141,3.196640
30.331253,3.546971,0.975564,-0.002236,3.194606
28.201860,-14.931758,1.012204,-0.001611,3.171979
28.201855,14.951258,1.012192,0.001633,3.171036
28.201843,2.100370,0.894787,-0.004209,3.164068
30.331257,-10.708694,1.016021,-0.000905,3.158666
30.331266,10.736800,1.016000,0.000906,3.157680
28.201859,-2.098640,0.891986,0.004316,3.154177
26.091442,-19.294987,1.009050,-0.002203,3.109474
26.091429,19.297886,1.009046,0.002223,3.109299
30.331257,-12.156794,1.014543,-0.001080,3.104784
30.331264,12.183001,1.014524,0.001090,3.103797
28.201862,-16.388744,1.010998,-0.001738,3.099511
28.201855,16.403114,1.010987,0.001759,3.098791
32.515751,-5.001871,1.013965,0.000344,3.082129
32.515755,4.973657,1.013241,-0.000592,3.080327
32.515759,6.381931,1.019933,0.000040,3.078007
32.515755,-6.409971,1.020054,-0.000169,3.077870
30.331257,-13.545750,1.013213,-0.001232,3.050145
30.331266,13.569126,1.013195,0.001248,3.049212
32.515755,-7.794009,1.018789,-0.000350,3.046908
32.515762,7.820095,1.018732,0.000297,3.046183
28.201849,-17.814426,1.009925,-0.001845,3.027618
28.201841,17.823286,1.009918,0.001865,3.027170
32.515762,-9.240858,1.017263,-0.000534,3.009355
32.515762,9.268894,1.017213,0.000515,3.008524
30.331257,-14.931758,1.011986,-0.001369,2.993387
30.331270,14.951259,1.011970,0.001387,2.992574
26.091412,0.700319,0.777952,-0.002944,2.980588
32.515747,-3.538575,0.973815,0.001975,2.977331
32.515751,3.546971,0.972431,-0.002251,2.973018
32.515762,-10.708693,1.015724,-0.000713,2.967024
26.091406,-0.700309,0.774361,0.002942,2.966831
32.515759,10.736801,1.015685,0.000713,2.966149
28.201866,-19.294981,1.008919,-0.001939,2.952585
28.201855,19.297884,1.008918,0.001958,2.952442
30.331282,2.100370,0.892988,-0.004181,2.937115
30.331257,-16.388744,1.010805,-0.001497,2.931936
30.331266,16.403112,1.010795,0.001516,2.931326
30.331249,-2.098639,0.890263,0.004027,2.928165
32.515759,-12.156794,1.014273,-0.000879,2.921798
32.515755,12.183002,1.014240,0.000889,2.920930
34.656834,-6.409970,1.019694,-0.000008,2.893189
34.656811,6.381928,1.019424,-0.000039,2.892843
34.656826,-5.001873,1.012444,0.000541,2.891383
34.656818,4.973656,1.011487,-0.000653,2.888983
32.515755,-13.545750,1.012965,-0.001026,2.875746
32.515755,13.569127,1.012940,0.001041,2.874940
30.331261,-17.814426,1.009756,-0.001607,2.870599
30.331266,17.823284,1.009750,0.001627,2.870218
34.656834,-7.794013,1.018486,-0.000198,2.867164
34.656807,7.820098,1.018377,0.000193,2.866397
34.656822,-9.240855,1.016970,-0.000381,2.835339
34.656807,9.268900,1.016893,0.000389,2.834554
32.515755,-14.931758,1.011762,-0.001160,2.827705
32.515755,14.951256,1.011744,0.001178,2.827013
30.331255,-19.294981,1.008778,-0.001707,2.806195
30.331266,19.297884,1.008777,0.001727,2.806069
34.656822,-10.708691,1.015451,-0.000555,2.799424
34.656811,10.736804,1.015393,0.000570,2.798625
34.656818,-3.538577,0.970855,0.002064,2.786855
34.656818,3.546968,0.969634,-0.002161,2.783283
28.201782,0.700320,0.784905,-0.002733,2.782336
32.515759,-16.388744,1.010605,-0.001287,2.775442
32.515755,16.403111,1.010593,0.001306,2.774916
28.201786,-0.700309,0.781293,0.002907,2.769533
34.656826,-12.156789,1.014016,-0.000716,2.760945
34.656811,12.183005,1.013977,0.000734,2.760188
32.515713,2.100369,0.891346,-0.004028,2.735606
36.789410,-6.409971,1.019244,0.000157,2.729364
36.789421,6.381928,1.018940,-0.000066,2.728899
32.515713,-2.098638,0.888870,0.003704,2.728011
32.515755,-17.814426,1.009580,-0.001399,2.723005
36.789425,-5.001872,1.010933,0.000777,2.722841
32.515755,17.823284,1.009574,0.001419,2.722676
34.656826,-13.545747,1.012729,-0.000858,2.721662
34.656811,13.569129,1.012700,0.000878,2.720960
36.789425,4.973656,1.009826,-0.000654,2.720136
36.789413,-7.794013,1.018173,-0.000067,2.707479
36.789413,7.820099,1.018070,0.000132,2.706816
34.656826,-14.931754,1.011546,-0.000989,2.680544
36.789410,-9.240854,1.016680,-0.000255,2.680254
34.656807,14.951249,1.011524,0.001010,2.679938
36.789410,9.268900,1.016607,0.000301,2.679577
32.515759,-19.294981,1.008623,-0.001503,2.667636
32.515751,19.297884,1.008623,0.001522,2.667531
36.789406,-10.708689,1.015182,-0.000428,2.649480
36.789398,10.736807,1.015128,0.000463,2.648798
34.656826,-16.388746,1.010410,-0.001115,2.635638
34.656807,16.403112,1.010397,0.001135,2.635182
36.789425,-3.538577,0.968099,0.002221,2.619379
36.789421,3.546968,0.967118,-0.002096,2.616667
36.789410,-12.156788,1.013771,-0.000583,2.616458
36.789402,12.183007,1.013729,0.000614,2.615794
30.331287,0.700320,0.791583,-0.002659,2.609108
30.331280,-0.700310,0.787975,0.002441,2.597216
34.656822,-17.814430,1.009404,-0.001226,2.590391
34.656815,17.823284,1.009397,0.001247,2.590104
36.789410,-13.545749,1.012501,-0.000721,2.582654
36.789398,13.569131,1.012473,0.000749,2.582048
38.954422,-6.409971,1.018746,0.000212,2.580523
38.954418,6.381928,1.018508,-0.000099,2.580218
38.954422,-5.001871,1.009384,0.000808,2.570092
38.954422,4.973656,1.008135,-0.000720,2.567148
34.656837,2.100369,0.889983,-0.003721,2.563305
38.954422,-7.794011,1.017855,0.000007,2.562157
38.954414,7.820099,1.017802,0.000085,2.561694
34.656811,-2.098637,0.887981,0.003574,2.557549
36.789413,-14.931754,1.011335,-0.000848,2.547179
36.789398,14.951249,1.011316,0.000873,2.546661
34.656826,-19.294979,1.008464,-0.001331,2.542392
34.656811,19.297878,1.008463,0.001351,2.542299
38.954422,-9.240850,1.016396,-0.000168,2.538738
38.954422,9.268903,1.016350,0.000234,2.538211
38.954411,-10.708687,1.014922,-0.000330,2.512214
38.954430,10.736806,1.014881,0.000379,2.511647
36.789413,-16.388746,1.010219,-0.000971,2.508323
36.789394,16.403111,1.010205,0.000994,2.507924
38.954407,-12.156785,1.013529,-0.000478,2.483698
38.954437,12.183010,1.013499,0.000517,2.483146
36.789410,-17.814430,1.009229,-0.001081,2.469027
36.789398,17.823284,1.009224,0.001103,2.468782
38.954441,-3.538577,0.965600,0.002175,2.468635
38.954445,3.546967,0.964728,-0.002082,2.466356
38.954407,-13.545748,1.012280,-0.000610,2.454467
38.954445,13.569128,1.012255,0.000642,2.453947
32.515701,0.700320,0.797834,-0.002649,2.453133
41.095036,-6.409973,1.018281,0.000217,2.448265
41.095032,6.381927,1.018099,-0.000112,2.448082
32.515694,-0.700310,0.794490,0.001996,2.442845
41.095032,-5.001873,1.007941,0.000787,2.434739
41.095043,-7.794009,1.017583,0.000038,2.432801
41.095036,7.820099,1.017573,0.000047,2.432495
41.095032,4.973655,1.006396,-0.000762,2.431208
36.789413,-19.294979,1.008309,-0.001185,2.427193
36.789394,19.297876,1.008309,0.001206,2.427114
38.954403,-14.931749,1.011129,-0.000732,2.423717
38.954449,14.951246,1.011112,0.000760,2.423269
36.789375,2.100369,0.889064,-0.003409,2.412721
41.095036,-9.240849,1.016141,-0.000114,2.412422
41.095036,9.268908,1.016122,0.000179,2.412024
36.789425,-2.098637,0.887411,0.003565,2.408239
38.954403,-16.388746,1.010027,-0.000850,2.389946
38.954449,16.403112,1.010018,0.000876,2.389607
41.095043,-10.708687,1.014684,-0.000262,2.389326
41.095036,10.736804,1.014663,0.000312,2.388877
41.095043,-12.156784,1.013306,-0.000400,2.364475
41.095036,12.183012,1.013286,0.000440,2.364016
38.954407,-17.814432,1.009056,-0.000958,2.355707
38.954449,17.823288,1.009052,0.000981,2.355491
41.095047,-13.545748,1.012071,-0.000524,2.338969
41.095036,13.569124,1.012054,0.000557,2.338534
41.095032,-3.538575,0.963302,0.002105,2.335448
41.095028,3.546967,0.962620,-0.002066,2.333752
43.201370,-6.409972,1.017856,0.000234,2.330560
43.201359,6.381927,1.017700,-0.000156,2.330422
38.954403,-19.294975,1.008149,-0.001060,2.319123
38.954449,19.297876,1.008149,0.001082,2.319051
34.656811,0.700320,0.803365,-0.002421,2.317595
43.201370,-7.794010,1.017350,0.000061,2.317488
43.201366,7.820099,1.017368,0.000001,2.317285
43.201355,-5.001875,1.006508,0.000804,2.314348
41.095051,-14.931749,1.010933,-0.000640,2.312096
41.095036,14.951243,1.010923,0.000669,2.311720
43.201359,4.973654,1.004760,-0.000789,2.310499
34.656807,-0.700310,0.800510,0.001813,2.309355
43.201374,-9.240849,1.015911,-0.000078,2.299552
43.201366,9.268908,1.015914,0.000127,2.299253
41.095055,-16.388748,1.009848,-0.000753,2.282531
41.095036,16.403114,1.009841,0.000780,2.282243
43.201378,-10.708690,1.014466,-0.000214,2.279247
43.201382,10.736799,1.014459,0.000255,2.278885
38.954525,2.100370,0.888570,-0.003135,2.277749
38.954487,-2.098637,0.887204,0.003246,2.274257
43.201374,-12.156779,1.013100,-0.000342,2.257391
43.201378,12.183016,1.013088,0.000376,2.257007
41.095051,-17.814432,1.008887,-0.000857,2.252476
41.095032,17.823290,1.008887,0.000881,2.252301
43.201374,-13.545748,1.011876,-0.000459,2.234943
43.201378,13.569120,1.011865,0.000489,2.234575
45.320747,-6.409975,1.017399,0.000260,2.222764
45.320740,6.381927,1.017281,-0.000223,2.222697
41.095051,-19.294975,1.007995,-0.000957,2.220287
41.095032,19.297874,1.007998,0.000979,2.220235
43.201374,-3.538574,0.961072,0.002136,2.217213
43.201363,3.546968,0.960692,-0.002005,2.216302
45.320751,-7.794009,1.017124,0.000079,2.211810
45.320740,7.820099,1.017160,-0.000051,2.211675
43.201378,-14.931746,1.010752,-0.000568,2.211274
43.201382,14.951241,1.010743,0.000595,2.210947
45.320740,-5.001875,1.005097,0.000833,2.204357
45.320740,4.973654,1.003264,-0.000850,2.200486
36.789387,0.700320,0.808379,-0.002045,2.196924
45.320751,-9.240849,1.015698,-0.000053,2.195949
45.320744,9.268908,1.015708,0.000079,2.195705
36.789387,-0.700310,0.806105,0.001818,2.190744
43.201374,-16.388748,1.009677,-0.000677,2.185189
43.201382,16.403120,1.009673,0.000702,2.184938
45.320759,-10.708690,1.014260,-0.000180,2.177985
45.320744,10.736799,1.014259,0.000206,2.177681
41.095039,2.100372,0.888317,-0.002902,2.158811
45.320755,-12.156779,1.012906,-0.000300,2.158662
43.201374,-17.814434,1.008726,-0.000777,2.158616
43.201382,17.823290,1.008727,0.000799,2.158462
45.320747,12.183016,1.012899,0.000325,2.158333
41.095028,-2.098636,0.887314,0.003046,2.156380
45.320755,-13.545748,1.011691,-0.000410,2.138801
45.320744,13.569120,1.011683,0.000433,2.138483
43.201374,-19.294977,1.007845,-0.000873,2.130101
43.201382,19.297874,1.007850,0.000894,2.130058
47.506760,-6.409975,1.016917,0.000259,2.121349
47.506763,6.381927,1.016779,-0.000298,2.121228
45.320751,-14.931746,1.010577,-0.000514,2.117849
45.320744,14.951238,1.010571,0.000536,2.117565
47.506756,-7.794009,1.016907,0.000081,2.112313
47.506756,7.820099,1.016930,-0.000098,2.112175
45.320751,-3.538574,0.959047,0.002081,2.109717
45.320751,3.546968,0.958905,-0.001952,2.109373
47.506779,-5.001875,1.003702,0.000815,2.101142
47.506752,-9.240849,1.015492,-0.000041,2.098247
47.506748,9.268908,1.015496,0.000041,2.098024
47.506779,4.973654,1.001794,-0.000932,2.097278
45.320751,-16.388748,1.009511,-0.000617,2.094727
45.320744,16.403120,1.009509,0.000638,2.094510
38.954510,0.700319,0.812985,-0.001832,2.086679
47.506737,-10.708690,1.014063,-0.000160,2.082320
38.954510,-0.700310,0.811260,0.001587,2.082251
47.506737,10.736799,1.014057,0.000169,2.082042
45.320751,-17.814436,1.008575,-0.000712,2.071155
45.320736,17.823290,1.008577,0.000732,2.071022
47.506733,-12.156778,1.012719,-0.000272,2.065192
47.506737,12.183016,1.012709,0.000286,2.064898
43.201382,2.100371,0.888324,-0.002766,2.053824
43.201424,-2.098636,0.887654,0.002907,2.052278
47.506729,-13.545748,1.011510,-0.000375,2.047584
47.506737,13.569120,1.011503,0.000391,2.047304
45.320759,-19.294977,1.007705,-0.000804,2.045804
45.320740,19.297876,1.007708,0.000823,2.045764
49.639778,-6.409969,1.016446,0.000243,2.030783
49.639782,6.381925,1.016215,-0.000326,2.030468
47.506729,-14.931746,1.010406,-0.000472,2.029006
47.506737,14.951238,1.010400,0.000490,2.028756
49.639774,-7.794010,1.016709,0.000071,2.023384
49.639778,7.820099,1.016694,-0.000109,2.023192
49.639767,-9.240849,1.015305,-0.000042,2.010801
49.639774,9.268908,1.015282,0.000028,2.010550
47.506786,3.546967,0.957340,-0.001956,2.009575
49.639786,-5.001876,1.002416,0.000767,2.009207
47.506794,-3.538575,0.957101,0.001999,2.009099
47.506729,-16.388748,1.009351,-0.000570,2.008494
47.506741,16.403120,1.009351,0.000588,2.008304
49.639793,4.973655,1.000419,-0.000962,2.005316
49.639763,-10.708690,1.013884,-0.000152,1.996554
49.639763,10.736794,1.013865,0.000153,1.996283
41.095028,0.700320,0.817082,-0.001648,1.987991
47.506733,-17.814438,1.008420,-0.000660,1.987544
47.506741,17.823292,1.008423,0.000678,1.987428
41.095024,-0.700311,0.815849,0.001448,1.984989
49.639763,-12.156783,1.012546,-0.000256,1.981241
49.639763,12.183018,1.012527,0.000266,1.980960
49.639763,-13.545749,1.011347,-0.000353,1.965507
49.639763,13.569116,1.011335,0.000366,1.965249
47.506733,-19.294975,1.007562,-0.000748,1.964993
47.506741,19.297876,1.007568,0.000766,1.964963
45.320782,2.100372,0.888438,-0.002593,1.958239
45.320766,-2.098636,0.888081,0.002722,1.957456
49.639763,-14.931748,1.010248,-0.000444,1.948897
49.639767,14.951241,1.010241,0.000460,1.948673
51.772938,-6.409972,1.015978,0.000229,1.947504
51.772949,6.381927,1.015651,-0.000275,1.947005
51.772942,-7.794010,1.016520,0.000055,1.941543
51.772968,7.820100,1.016473,-0.000076,1.941308
49.639763,-16.388748,1.009203,-0.000536,1.930559
49.639767,16.403130,1.009203,0.000553,1.930391
51.772945,-9.240849,1.015132,-0.000050,1.930234
51.772968,9.268909,1.015086,0.000046,1.929963
51.772934,-5.001875,1.001209,0.000742,1.924884
51.772934,4.973654,0.999122,-0.000882,1.920972
49.639767,3.546968,0.955957,-0.001926,1.920895
49.639774,-3.538576,0.955375,0.001861,1.919747
51.772949,-10.708690,1.013718,-0.000154,1.917421
51.772961,10.736797,1.013684,0.000160,1.917150
49.639763,-17.814434,1.008283,-0.000621,1.911816
49.639767,17.823292,1.008284,0.000639,1.911710
51.772961,-12.156780,1.012384,-0.000252,1.903655
51.772972,12.183017,1.012359,0.000263,1.903392
43.201412,0.700320,0.820827,-0.001565,1.899755
43.201416,-0.700311,0.820006,0.001331,1.897853
49.639763,-19.294983,1.007427,-0.000705,1.891601
49.639763,19.297876,1.007433,0.000722,1.891575
51.772968,-13.545748,1.011192,-0.000342,1.889525
51.772964,13.569117,1.011176,0.000357,1.889286
51.772964,-14.931747,1.010102,-0.000428,1.874614
51.772964,14.951243,1.010094,0.000445,1.874412
53.964291,-6.409969,1.015508,0.000221,1.868679
47.506786,2.100373,0.888554,-0.002491,1.868555
47.506805,-2.098638,0.888546,0.002584,1.868542
53.964291,6.381927,1.015095,-0.000197,1.868031
53.964298,-7.794009,1.016329,0.000041,1.863995
53.964294,7.820099,1.016277,-0.000015,1.863772
51.772964,-16.388748,1.009065,-0.000515,1.858144
51.772964,16.403124,1.009061,0.000532,1.857989
53.964302,-9.240849,1.014962,-0.000066,1.853820
53.964294,9.268908,1.014908,0.000086,1.853560
53.964291,-5.001876,0.999918,0.000769,1.845018
53.964302,-10.708690,1.013556,-0.000165,1.842274
53.964298,10.736797,1.013513,0.000184,1.842014
51.772961,-17.814442,1.008150,-0.000595,1.841300
53.964287,4.973655,0.997845,-0.000775,1.841281
51.772957,17.823294,1.008152,0.000612,1.841207
51.772949,3.546969,0.954592,-0.001850,1.839497
51.772964,-3.538575,0.953819,0.001776,1.838027
53.964306,-12.156783,1.012229,-0.000258,1.829881
53.964314,12.183017,1.012201,0.000276,1.829639
51.772964,-19.294979,1.007303,-0.000674,1.823121
51.772964,19.297878,1.007308,0.000691,1.823098
45.320786,0.700320,0.824231,-0.001512,1.818446
45.320782,-0.700310,0.824003,0.001231,1.817942
53.964310,-13.545748,1.011044,-0.000342,1.817168
53.964306,13.569116,1.011026,0.000361,1.816950
53.964306,-14.931748,1.009962,-0.000423,1.803762
53.964310,14.951241,1.009950,0.000441,1.803572
56.084457,-6.409968,1.015053,0.000176,1.798159
56.084450,6.381927,1.014572,-0.000118,1.797408
56.084454,-7.794008,1.016139,0.000002,1.794556
56.084442,7.820099,1.016128,0.000053,1.794423
49.639744,-2.098637,0.888985,0.002392,1.789282
53.964306,-16.388746,1.008929,-0.000503,1.788944
53.964310,16.403130,1.008925,0.000521,1.788804
49.639732,2.100375,0.888681,-0.002433,1.788667
56.084457,-9.240850,1.014808,-0.000096,1.785356
56.084446,9.268907,1.014761,0.000136,1.785130
56.084450,-10.708690,1.013407,-0.000188,1.774867
56.084450,10.736797,1.013372,0.000219,1.774641
53.964302,-17.814436,1.008021,-0.000578,1.773790
53.964306,17.823294,1.008021,0.000596,1.773702
56.084457,-5.001874,0.998659,0.000680,1.773596
56.084454,4.973655,0.996612,-0.000670,1.770038
56.084442,-12.156782,1.012089,-0.000273,1.763625
56.084438,12.183017,1.012067,0.000299,1.763415
53.964306,3.546969,0.953222,-0.001716,1.762593
53.964321,-3.538576,0.952411,0.001765,1.761111
53.964306,-19.294985,1.007185,-0.000652,1.757432
53.964310,19.297880,1.007190,0.000669,1.757411
56.084442,-13.545748,1.010910,-0.000352,1.752100
56.084438,13.569118,1.010893,0.000375,1.751903
47.506786,-0.700310,0.827797,0.001178,1.742294
47.506786,0.700320,0.827652,-0.001424,1.741989
56.084442,-14.931750,1.009833,-0.000426,1.739948
56.084442,14.951241,1.009821,0.000448,1.739777
58.190689,-6.409966,1.014631,0.000114,1.733147
58.190693,6.381928,1.014090,-0.000031,1.732314
58.190689,-7.794008,1.015972,-0.000052,1.730483
58.190674,7.820098,1.015999,0.000121,1.730426
56.084442,-16.388746,1.008808,-0.000501,1.726527
56.084442,16.403135,1.008801,0.000521,1.726396
58.190685,-9.240850,1.014667,-0.000138,1.722115
58.190670,9.268908,1.014639,0.000187,1.721938
51.773010,-2.098636,0.889451,0.002230,1.716577
51.772907,2.100374,0.888841,-0.002287,1.715402
56.084438,-17.814432,1.007908,-0.000571,1.712798
56.084438,17.823292,1.007906,0.000590,1.712717
58.190674,-10.708692,1.013272,-0.000219,1.712539
58.190674,10.736797,1.013250,0.000257,1.712354
58.190701,-5.001876,0.997518,0.000606,1.707925
58.190697,4.973654,0.995432,-0.000541,1.704424
58.190674,-12.156782,1.011960,-0.000298,1.702290
58.190666,12.183016,1.011942,0.000328,1.702107
56.084442,-19.294985,1.007074,-0.000640,1.697964
56.084442,19.297874,1.007079,0.000658,1.697945
56.084423,3.546968,0.951960,-0.001598,1.693988
56.084389,-3.538578,0.951197,0.001570,1.692647
58.190670,-13.545749,1.010787,-0.000370,1.691793
58.190670,13.569118,1.010775,0.000396,1.691623
58.190670,-14.931750,1.009714,-0.000439,1.680730
58.190670,14.951240,1.009708,0.000462,1.680586
49.639702,-0.700311,0.831293,0.001038,1.674487
49.639702,0.700320,0.830876,-0.001400,1.673649
60.347427,-6.409966,1.014190,0.000059,1.671185
60.347424,6.381924,1.013648,0.000022,1.670372
60.347424,7.820099,1.015888,0.000172,1.669441
60.347427,-7.794008,1.015817,-0.000103,1.669415
58.190666,-16.388746,1.008694,-0.000509,1.668518
58.190666,16.403135,1.008695,0.000529,1.668412
60.347435,-9.240851,1.014535,-0.000184,1.661787
60.347427,9.268907,1.014532,0.000230,1.661666
58.190674,-17.814432,1.007798,-0.000574,1.656026
58.190674,17.823292,1.007803,0.000592,1.655963
60.347435,-10.708693,1.013145,-0.000259,1.653029
60.347431,10.736797,1.013138,0.000294,1.652885
53.964329,-2.098636,0.889935,0.002118,1.647875
53.964291,2.100376,0.889164,-0.002064,1.646448
60.347420,-5.001875,0.996370,0.000555,1.645415
60.347431,-12.156782,1.011838,-0.000331,1.643669
60.347431,12.183015,1.011829,0.000359,1.643517
58.190666,-19.294985,1.006971,-0.000638,1.642528
58.190666,19.297874,1.006977,0.000655,1.642514
60.347424,4.973656,0.994208,-0.000496,1.641907
60.347435,-13.545749,1.010670,-0.000397,1.634092
60.347431,13.569119,1.010662,0.000421,1.633945
58.190670,3.546968,0.950836,-0.001395,1.630975
58.190670,-3.538577,0.950093,0.001428,1.629716
60.347435,-14.931750,1.009603,-0.000461,1.624010
60.347431,14.951240,1.009600,0.000481,1.623883
62.484409,-6.409966,1.013768,-0.000000,1.613963
62.484417,6.381925,1.013189,0.000026,1.613115
62.484409,7.820102,1.015772,0.000195,1.613057
62.484417,-7.794008,1.015660,-0.000157,1.612962
60.347431,-16.388746,1.008587,-0.000525,1.612883
60.347431,16.403133,1.008589,0.000543,1.612789
51.772961,-0.700310,0.834496,0.001019,1.611691
51.772972,0.700319,0.833958,-0.001233,1.610652
62.484409,-9.240851,1.014418,-0.000233,1.606006
62.484406,9.268907,1.014428,0.000261,1.605917
60.347435,-17.814432,1.007696,-0.000584,1.601503
60.347431,17.823292,1.007702,0.000601,1.601448
62.484409,-10.708694,1.013031,-0.000303,1.597957
62.484402,10.736796,1.013030,0.000327,1.597836
62.484398,-12.156782,1.011728,-0.000370,1.589367
62.484406,12.183013,1.011724,0.000391,1.589236
60.347435,-19.294985,1.006873,-0.000642,1.589207
60.347431,19.297874,1.006881,0.000659,1.589197
62.484421,-5.001873,0.995245,0.000490,1.587710
56.084309,-2.098637,0.890387,0.001948,1.586480
56.084419,2.100379,0.889572,-0.001850,1.585023
62.484421,4.973656,0.993008,-0.000490,1.584198
62.484398,-13.545749,1.010564,-0.000431,1.580591
62.484402,13.569120,1.010561,0.000451,1.580464
62.484398,-14.931750,1.009502,-0.000489,1.571362
62.484402,14.951241,1.009503,0.000507,1.571253
60.347446,3.546967,0.949699,-0.001359,1.571009
60.347446,-3.538576,0.949025,0.001354,1.569906
62.484394,-16.388744,1.008490,-0.000547,1.561181
62.484402,16.403135,1.008496,0.000564,1.561101
64.597717,-6.409965,1.013352,-0.000054,1.561045
64.597725,7.820102,1.015626,0.000208,1.560836
64.597717,-7.794007,1.015518,-0.000211,1.560745
64.597710,6.381925,1.012696,-0.000002,1.560102
64.597725,-9.240852,1.014304,-0.000285,1.554362
64.597733,9.268906,1.014312,0.000293,1.554279
53.964333,-0.700311,0.837456,0.000962,1.551739
62.484398,-17.814430,1.007606,-0.000601,1.550777
53.964325,0.700319,0.836915,-0.001092,1.550738
62.484402,17.823292,1.007612,0.000617,1.550729
64.597717,-10.708694,1.012923,-0.000353,1.546936
64.597740,10.736797,1.012923,0.000365,1.546826
62.484398,19.297873,1.006798,0.000670,1.539528
62.484398,-19.294987,1.006784,-0.000654,1.539527
64.597725,-12.156781,1.011626,-0.000416,1.539024
64.597733,12.183012,1.011622,0.000430,1.538904
64.597702,-5.001874,0.994141,0.000446,1.534381
64.597702,4.973656,0.991885,-0.000558,1.530949
64.597748,-13.545749,1.010467,-0.000472,1.530948
64.597748,13.569120,1.010467,0.000487,1.530837
58.190662,-2.098636,0.890622,0.001790,1.529533
58.190632,2.100380,0.889971,-0.001644,1.528413
64.597748,-14.931748,1.009409,-0.000525,1.522464
64.597755,14.951241,1.009412,0.000540,1.522368
62.484383,3.546966,0.948643,-0.001260,1.515769
62.484383,-3.538578,0.948003,0.001304,1.514758
64.597748,-16.388744,1.008404,-0.000577,1.513115
64.597748,16.403137,1.008411,0.000592,1.513044
66.755814,7.820100,1.015434,0.000248,1.510786
66.755798,-7.794008,1.015353,-0.000253,1.510734
66.755806,-6.409965,1.012867,-0.000062,1.510325
66.755821,6.381926,1.012115,0.000010,1.509263
66.755775,-9.240853,1.014187,-0.000345,1.504900
66.755791,9.268905,1.014183,0.000345,1.504807
64.597740,-17.814428,1.007524,-0.000625,1.503562
64.597748,17.823292,1.007531,0.000639,1.503520
66.755760,-10.708694,1.012817,-0.000415,1.498046
66.755791,10.736799,1.012812,0.000420,1.497939
56.084351,-0.700311,0.840169,0.000951,1.497929
56.084354,0.700320,0.839442,-0.000941,1.496633
64.597748,19.297873,1.006730,0.000686,1.493252
64.597748,-19.294987,1.006715,-0.000672,1.493248
66.755745,-12.156781,1.011531,-0.000474,1.490755
66.755768,12.183009,1.011525,0.000482,1.490641
66.755836,-5.001874,0.993036,0.000480,1.483407
66.755745,-13.545750,1.010378,-0.000525,1.483316
66.755745,13.569120,1.010375,0.000534,1.483209
66.755829,4.973656,0.990702,-0.000580,1.479966
66.755745,-14.931746,1.009329,-0.000571,1.475513
60.347492,-2.098636,0.890971,0.001643,1.475512
66.755745,14.951242,1.009331,0.000581,1.475423
60.347454,2.100379,0.890321,-0.001626,1.474435
66.755745,-16.388742,1.008328,-0.000615,1.466914
66.755745,16.403135,1.008331,0.000626,1.466845
64.597687,3.546966,0.947764,-0.001245,1.464974
64.597687,-3.538578,0.947031,0.001224,1.463852
68.958542,7.820097,1.015224,0.000349,1.462848
68.958542,-7.794009,1.015151,-0.000354,1.462804
68.958534,-6.409968,1.012317,-0.000149,1.461708
68.958534,6.381926,1.011487,0.000107,1.460563
66.755753,-17.814428,1.007450,-0.000656,1.458131
66.755745,17.823292,1.007461,0.000667,1.458099
68.958549,-9.240854,1.014066,-0.000442,1.457516
68.958534,9.268903,1.014053,0.000439,1.457419
68.958542,-10.708694,1.012721,-0.000502,1.451200
68.958534,10.736802,1.012707,0.000503,1.451090
66.755745,-19.294985,1.006649,-0.000697,1.448660
66.755745,19.297873,1.006650,0.000708,1.448645
58.190632,-0.700311,0.842608,0.000913,1.447909
58.190628,0.700320,0.841752,-0.000813,1.446439
68.958549,-12.156782,1.011445,-0.000550,1.444470
68.958527,12.183006,1.011437,0.000554,1.444364
68.958534,-13.545751,1.010305,-0.000590,1.437617
68.958542,13.569121,1.010297,0.000596,1.437514
68.958557,-5.001875,0.991868,0.000396,1.434586
68.958527,4.973655,0.989468,-0.000496,1.431156
68.958534,-14.931746,1.009258,-0.000625,1.430423
68.958534,14.951243,1.009257,0.000633,1.430338
62.484348,-2.098638,0.891355,0.001523,1.425723
62.484333,2.100379,0.890703,-0.001473,1.424679
68.958527,-16.388744,1.008268,-0.000660,1.422515
68.958542,16.403133,1.008270,0.000669,1.422451
66.755814,3.546966,0.946954,-0.001272,1.416537
66.755814,-3.538578,0.946131,0.001213,1.415316
68.958527,-17.814428,1.007394,-0.000692,1.414434
68.958549,17.823292,1.007400,0.000703,1.414399
68.958542,19.297871,1.006589,0.000736,1.405696
68.958542,-19.294985,1.006569,-0.000725,1.405684
60.347481,-0.700311,0.845040,0.000718,1.400196
60.347473,0.700319,0.843807,-0.000876,1.398154
64.597664,-2.098638,0.891824,0.001372,1.379855
64.597664,2.100379,0.891044,-0.001428,1.378649
68.958572,3.546967,0.946180,-0.001188,1.370289
68.958633,-3.538579,0.945370,0.001075,1.369123
62.484341,-0.700311,0.847362,0.000620,1.356034
62.484352,0.700320,0.845605,-0.000795,1.353223
66.755783,-2.098637,0.892321,0.001311,1.336035
66.755791,2.100379,0.891445,-0.001397,1.334724
64.597725,-0.700311,0.849404,0.000533,1.314837
64.597717,0.700320,0.847230,-0.000749,1.311471
68.958679,-2.098637,0.892796,0.001128,1.294085
68.958595,2.100378,0.891772,-0.001382,1.292601
66.755852,-0.700312,0.851333,0.000523,1.275223
66.755844,0.700320,0.848848,-0.000726,1.271501
68.958588,-0.700311,0.853205,0.000416,1.237208
68.958588,0.700320,0.850458,-0.000775,1.233225
